{
  "decks": [
    {
      "name": "Espace",
      "cards": [
        {
          "name": "Cosmonaute",
          "color": "#fa2f3e",
          "code": [
            "X        X",
            " x        ",
            "  x x     ",
            "   X      ",
            "          ",
            "    XX    ",
            "          ",
            "          ",
            "          ",
            "          "
          ]
        },
        {
          "name": "Alien",
          "color": "#a7a9a8",
          "code": [
            "          ",
            "          ",
            "          ",
            "          ",
            " X      X ",
            " X      X ",
            "          ",
            "          ",
            "          ",
            "          "
          ]
        },
        {
          "name": "Garçon",
          "color": "#000000",
          "code": [
            "          ",
            "          ",
            "          ",
            "   X  X   ",
            "          ",
            "          ",
            "          ",
            "    XX    ",
            "          ",
            "          "
          ]
        },
        {
          "name": "Fille",
          "color": "#ffffff",
          "code": [
            "          ",
            "          ",
            "          ",
            "          ",
            "          ",
            "          ",
            "          ",
            "  X    X  ",
            " X      X ",
            "          "
          ]
        },
        {
          "name": "Piloter",
          "color": "#ff7a42",
          "code": [
            "          ",
            "          ",
            "          ",
            "          ",
            "          ",
            "          ",
            "          ",
            "   X  X   ",
            "  XX  XX  ",
            " XX XX XX "
          ]
        },
        {
          "name": "Soigner",
          "color": "#05aa42",
          "code": [
            "          ",
            "   X      ",
            "  XXX     ",
            " XXXX     ",
            "  XXX     ",
            "  XX      ",
            "   XXX    ",
            "          ",
            "          ",
            "          "
          ]
        },
        {
          "name": "Attaquer",
          "color": "#68b6f4",
          "code": [
            "          ",
            "      X   ",
            "     XXX  ",
            "     X XX ",
            "   XXXXX  ",
            "      XX  ",
            "   XXXX   ",
            "          ",
            "          ",
            "          "
          ]
        },
        {
          "name": "Manger",
          "color": "#a7a9a8",
          "code": [
            "    XX    ",
            "    XX    ",
            "          ",
            "          ",
            "          ",
            "          ",
            "          ",
            "          ",
            "    XX    ",
            "   XXXX   "
          ]
        },
        {
          "name": "Dormir",
          "color": "#e4d109",
          "code": [
            "          ",
            "   XXX    ",
            "          ",
            "          ",
            "          ",
            "          ",
            "          ",
            "          ",
            "   XXXX   ",
            "          "
          ]
        },
        {
          "name": "Si",
          "color": "#e4d109",
          "code": [
            "          ",
            "   XXX    ",
            "          ",
            "          ",
            "          ",
            "          ",
            "          ",
            "          ",
            "   XXXX   ",
            "          "
          ]
        },
        {
          "name": "Alors",
          "color": "#e4d109",
          "code": [
            "          ",
            "   XXX    ",
            "          ",
            "          ",
            "          ",
            "          ",
            "          ",
            "          ",
            "   XXXX   ",
            "          "
          ]
        },
        {
          "name": "Sinon",
          "color": "#e4d109",
          "code": [
            "          ",
            "   XXX    ",
            "          ",
            "          ",
            "          ",
            "          ",
            "          ",
            "          ",
            "   XXXX   ",
            "          "
          ]
        },
        {
          "name": "Fin_Si",
          "color": "#e4d109",
          "code": [
            "          ",
            "   XXX    ",
            "          ",
            "          ",
            "          ",
            "          ",
            "          ",
            "          ",
            "   XXXX   ",
            "          "
          ]
        },
        {
          "name": "Tant_Que",
          "color": "#e4d109",
          "code": [
            "          ",
            "   XXX    ",
            "          ",
            "          ",
            "          ",
            "          ",
            "          ",
            "          ",
            "   XXXX   ",
            "          "
          ]
        },
        {
          "name": "Fin_Tant_Que",
          "color": "#e4d109",
          "code": [
            "          ",
            "   XXX    ",
            "          ",
            "          ",
            "          ",
            "          ",
            "          ",
            "          ",
            "   XXXX   ",
            "          "
          ]
        },
        {
          "name": "Et",
          "color": "#e4d109",
          "code": [
            "          ",
            "   XXX    ",
            "          ",
            "          ",
            "          ",
            "          ",
            "          ",
            "          ",
            "   XXXX   ",
            "          "
          ]
        },
        {
          "name": "Ou",
          "color": "#e4d109",
          "code": [
            "          ",
            "   XXX    ",
            "          ",
            "          ",
            "          ",
            "          ",
            "          ",
            "          ",
            "   XXXX   ",
            "          "
          ]
        },
        {
          "name": "Fusée",
          "color": "#e4d109",
          "code": [
            "          ",
            "   XXX    ",
            "          ",
            "          ",
            "          ",
            "          ",
            "          ",
            "          ",
            "   XXXX   ",
            "          "
          ]
        },
        {
          "name": "Lune",
          "color": "#e4d109",
          "code": [
            "          ",
            "   XXX    ",
            "          ",
            "          ",
            "          ",
            "          ",
            "          ",
            "          ",
            "   XXXX   ",
            "          "
          ]
        },
        {
          "name": "Coffre",
          "color": "#e4d109",
          "code": [
            "          ",
            "   XXX    ",
            "          ",
            "          ",
            "          ",
            "          ",
            "          ",
            "          ",
            "   XXXX   ",
            "          "
          ]
        },
        {
          "name": "Gateau",
          "color": "#e4d109",
          "code": [
            "          ",
            "   XXX    ",
            "          ",
            "          ",
            "          ",
            "          ",
            "          ",
            "          ",
            "   XXXX   ",
            "          "
          ]
        }
      ]
    },
    {
      "name": "Pirate",
      "cards": [
        {
          "name": "Roi",
          "color": "#fa2f3e",
          "code": [
            "          ",
            "          ",
            "          ",
            "   X  X   ",
            "          ",
            "    XX    ",
            "          ",
            "          ",
            "          ",
            "          "
          ]
        },
        {
          "name": "Pirate",
          "color": "#a7a9a8",
          "code": [
            "          ",
            "          ",
            "          ",
            "          ",
            " X      X ",
            " X      X ",
            "          ",
            "          ",
            "          ",
            "          "
          ]
        },
        {
          "name": "Garçon",
          "color": "#000000",
          "code": [
            "          ",
            "          ",
            "          ",
            "   X  X   ",
            "          ",
            "          ",
            "          ",
            "    XX    ",
            "          ",
            "          "
          ]
        },
        {
          "name": "Fille",
          "color": "#ffffff",
          "code": [
            "          ",
            "          ",
            "          ",
            "          ",
            "          ",
            "          ",
            "          ",
            "  X    X  ",
            " X      X ",
            "          "
          ]
        },
        {
          "name": "Naviguer",
          "color": "#ff7a42",
          "code": [
            "          ",
            "          ",
            "          ",
            "          ",
            "          ",
            "          ",
            "          ",
            "   X  X   ",
            "  XX  XX  ",
            " XX XX XX "
          ]
        },
        {
          "name": "Attaquer",
          "color": "#05aa42",
          "code": [
            "          ",
            "   X      ",
            "  XXX     ",
            " XXXX     ",
            "  XXX     ",
            "  XX      ",
            "   XXX    ",
            "          ",
            "          ",
            "          "
          ]
        },
        {
          "name": "Manger",
          "color": "#68b6f4",
          "code": [
            "          ",
            "      X   ",
            "     XXX  ",
            "     X XX ",
            "   XXXXX  ",
            "      XX  ",
            "   XXXX   ",
            "          ",
            "          ",
            "          "
          ]
        },
        {
          "name": "Dormir",
          "color": "#a7a9a8",
          "code": [
            "    XX    ",
            "    XX    ",
            "          ",
            "          ",
            "          ",
            "          ",
            "          ",
            "          ",
            "    XX    ",
            "   XXXX   "
          ]
        },
        {
          "name": "Soigner",
          "color": "#e4d109",
          "code": [
            "          ",
            "   XXX    ",
            "          ",
            "          ",
            "          ",
            "          ",
            "          ",
            "          ",
            "   XXXX   ",
            "          "
          ]
        },
        {
          "name": "Si",
          "color": "#e4d109",
          "code": [
            "          ",
            "   XXX    ",
            "          ",
            "          ",
            "          ",
            "          ",
            "          ",
            "          ",
            "   XXXX   ",
            "          "
          ]
        },
        {
          "name": "Alors",
          "color": "#e4d109",
          "code": [
            "          ",
            "   XXX    ",
            "          ",
            "          ",
            "          ",
            "          ",
            "          ",
            "          ",
            "   XXXX   ",
            "          "
          ]
        },
        {
          "name": "Sinon",
          "color": "#e4d109",
          "code": [
            "          ",
            "   XXX    ",
            "          ",
            "          ",
            "          ",
            "          ",
            "          ",
            "          ",
            "   XXXX   ",
            "          "
          ]
        },
        {
          "name": "Fin_Si",
          "color": "#e4d109",
          "code": [
            "          ",
            "   XXX    ",
            "          ",
            "          ",
            "          ",
            "          ",
            "          ",
            "          ",
            "   XXXX   ",
            "          "
          ]
        },
        {
          "name": "Tant_Que",
          "color": "#e4d109",
          "code": [
            "          ",
            "   XXX    ",
            "          ",
            "          ",
            "          ",
            "          ",
            "          ",
            "          ",
            "   XXXX   ",
            "          "
          ]
        },
        {
          "name": "Fin_Tant_Que",
          "color": "#e4d109",
          "code": [
            "          ",
            "   XXX    ",
            "          ",
            "          ",
            "          ",
            "          ",
            "          ",
            "          ",
            "   XXXX   ",
            "          "
          ]
        },
        {
          "name": "Et",
          "color": "#e4d109",
          "code": [
            "          ",
            "   XXX    ",
            "          ",
            "          ",
            "          ",
            "          ",
            "          ",
            "          ",
            "   XXXX   ",
            "          "
          ]
        },
        {
          "name": "Ou",
          "color": "#e4d109",
          "code": [
            "          ",
            "   XXX    ",
            "          ",
            "          ",
            "          ",
            "          ",
            "          ",
            "          ",
            "   XXXX   ",
            "          "
          ]
        },
        {
          "name": "Ile",
          "color": "#e4d109",
          "code": [
            "          ",
            "   XXX    ",
            "          ",
            "          ",
            "          ",
            "          ",
            "          ",
            "          ",
            "   XXXX   ",
            "          "
          ]
        },
        {
          "name": "Bateau",
          "color": "#e4d109",
          "code": [
            "          ",
            "   XXX    ",
            "          ",
            "          ",
            "          ",
            "          ",
            "          ",
            "          ",
            "   XXXX   ",
            "          "
          ]
        },
        {
          "name": "Château",
          "color": "#e4d109",
          "code": [
            "          ",
            "   XXX    ",
            "          ",
            "          ",
            "          ",
            "          ",
            "          ",
            "          ",
            "   XXXX   ",
            "          "
          ]
        },
        {
          "name": "Pomme",
          "color": "#e4d109",
          "code": [
            "          ",
            "   XXX    ",
            "          ",
            "          ",
            "          ",
            "          ",
            "          ",
            "          ",
            "   XXXX   ",
            "          "
          ]
        },
        {
          "name": "Gâteau",
          "color": "#e4d109",
          "code": [
            "          ",
            "   XXX    ",
            "          ",
            "          ",
            "          ",
            "          ",
            "          ",
            "          ",
            "   XXXX   ",
            "          "
          ]
        },
        {
          "name": "Coffre",
          "color": "#e4d109",
          "code": [
            "          ",
            "   XXX    ",
            "          ",
            "          ",
            "          ",
            "          ",
            "          ",
            "          ",
            "   XXXX   ",
            "          "
          ]
        }
      ]
    },
    {
      "name": "Chevalerie",
      "cards": [
        {
          "name": "Chevalier",
          "color": "#fa2f3e",
          "code": [
            "          ",
            "          ",
            "          ",
            "   X  X   ",
            "          ",
            "    XX    ",
            "          ",
            "          ",
            "          ",
            "          "
          ]
        },
        {
          "name": "Princesse",
          "color": "#fa2f3e",
          "code": [
            "          ",
            "          ",
            "          ",
            "   X  X   ",
            "          ",
            "    XX    ",
            "          ",
            "          ",
            "          ",
            "          "
          ]
        },
        {
          "name": "Roi",
          "color": "#fa2f3e",
          "code": [
            "          ",
            "          ",
            "          ",
            "   X  X   ",
            "          ",
            "    XX    ",
            "          ",
            "          ",
            "          ",
            "          "
          ]
        },
        {
          "name": "Dragon",
          "color": "#a7a9a8",
          "code": [
            "          ",
            "          ",
            "          ",
            "          ",
            " X      X ",
            " X      X ",
            "          ",
            "          ",
            "          ",
            "          "
          ]
        },
        {
          "name": "Mage",
          "color": "#a7a9a8",
          "code": [
            "          ",
            "          ",
            "          ",
            "          ",
            " X      X ",
            " X      X ",
            "          ",
            "          ",
            "          ",
            "          "
          ]
        },
        {
          "name": "Sorcière",
          "color": "#a7a9a8",
          "code": [
            "          ",
            "          ",
            "          ",
            "          ",
            " X      X ",
            " X      X ",
            "          ",
            "          ",
            "          ",
            "          "
          ]
        },
        {
          "name": "Garçon",
          "color": "#000000",
          "code": [
            "          ",
            "          ",
            "          ",
            "   X  X   ",
            "          ",
            "          ",
            "          ",
            "    XX    ",
            "          ",
            "          "
          ]
        },
        {
          "name": "Fille",
          "color": "#ffffff",
          "code": [
            "          ",
            "          ",
            "          ",
            "          ",
            "          ",
            "          ",
            "          ",
            "  X    X  ",
            " X      X ",
            "          "
          ]
        },
        {
          "name": "Avancer",
          "color": "#ff7a42",
          "code": [
            "          ",
            "          ",
            "          ",
            "          ",
            "          ",
            "          ",
            "          ",
            "   X  X   ",
            "  XX  XX  ",
            " XX XX XX "
          ]
        },
        {
          "name": "Utiliser",
          "color": "#05aa42",
          "code": [
            "          ",
            "   X      ",
            "  XXX     ",
            " XXXX     ",
            "  XXX     ",
            "  XX      ",
            "   XXX    ",
            "          ",
            "          ",
            "          "
          ]
        },
        {
          "name": "Attaquer",
          "color": "#05aa42",
          "code": [
            "          ",
            "   X      ",
            "  XXX     ",
            " XXXX     ",
            "  XXX     ",
            "  XX      ",
            "   XXX    ",
            "          ",
            "          ",
            "          "
          ]
        },
        {
          "name": "Manger",
          "color": "#68b6f4",
          "code": [
            "          ",
            "      X   ",
            "     XXX  ",
            "     X XX ",
            "   XXXXX  ",
            "      XX  ",
            "   XXXX   ",
            "          ",
            "          ",
            "          "
          ]
        },
        {
          "name": "Dormir",
          "color": "#a7a9a8",
          "code": [
            "    XX    ",
            "    XX    ",
            "          ",
            "          ",
            "          ",
            "          ",
            "          ",
            "          ",
            "    XX    ",
            "   XXXX   "
          ]
        },
        {
          "name": "Soigner",
          "color": "#e4d109",
          "code": [
            "          ",
            "   XXX    ",
            "          ",
            "          ",
            "          ",
            "          ",
            "          ",
            "          ",
            "   XXXX   ",
            "          "
          ]
        },
        {
          "name": "Fuir",
          "color": "#e4d109",
          "code": [
            "          ",
            "   XXX    ",
            "          ",
            "          ",
            "          ",
            "          ",
            "          ",
            "          ",
            "   XXXX   ",
            "          "
          ]
        },
        {
          "name": "Si",
          "color": "#e4d109",
          "code": [
            "          ",
            "   XXX    ",
            "          ",
            "          ",
            "          ",
            "          ",
            "          ",
            "          ",
            "   XXXX   ",
            "          "
          ]
        },
        {
          "name": "Alors",
          "color": "#e4d109",
          "code": [
            "          ",
            "   XXX    ",
            "          ",
            "          ",
            "          ",
            "          ",
            "          ",
            "          ",
            "   XXXX   ",
            "          "
          ]
        },
        {
          "name": "Sinon",
          "color": "#e4d109",
          "code": [
            "          ",
            "   XXX    ",
            "          ",
            "          ",
            "          ",
            "          ",
            "          ",
            "          ",
            "   XXXX   ",
            "          "
          ]
        },
        {
          "name": "Fin_Si",
          "color": "#e4d109",
          "code": [
            "          ",
            "   XXX    ",
            "          ",
            "          ",
            "          ",
            "          ",
            "          ",
            "          ",
            "   XXXX   ",
            "          "
          ]
        },
        {
          "name": "Tant_Que",
          "color": "#e4d109",
          "code": [
            "          ",
            "   XXX    ",
            "          ",
            "          ",
            "          ",
            "          ",
            "          ",
            "          ",
            "   XXXX   ",
            "          "
          ]
        },
        {
          "name": "Fin_Tant_Que",
          "color": "#e4d109",
          "code": [
            "          ",
            "   XXX    ",
            "          ",
            "          ",
            "          ",
            "          ",
            "          ",
            "          ",
            "   XXXX   ",
            "          "
          ]
        },
        {
          "name": "Et",
          "color": "#e4d109",
          "code": [
            "          ",
            "   XXX    ",
            "          ",
            "          ",
            "          ",
            "          ",
            "          ",
            "          ",
            "   XXXX   ",
            "          "
          ]
        },
        {
          "name": "Ou",
          "color": "#e4d109",
          "code": [
            "          ",
            "   XXX    ",
            "          ",
            "          ",
            "          ",
            "          ",
            "          ",
            "          ",
            "   XXXX   ",
            "          "
          ]
        },
        {
          "name": "Forêt",
          "color": "#e4d109",
          "code": [
            "          ",
            "   XXX    ",
            "          ",
            "          ",
            "          ",
            "          ",
            "          ",
            "          ",
            "   XXXX   ",
            "          "
          ]
        },
        {
          "name": "Château",
          "color": "#e4d109",
          "code": [
            "          ",
            "   XXX    ",
            "          ",
            "          ",
            "          ",
            "          ",
            "          ",
            "          ",
            "   XXXX   ",
            "          "
          ]
        },
        {
          "name": "Pomme",
          "color": "#e4d109",
          "code": [
            "          ",
            "   XXX    ",
            "          ",
            "          ",
            "          ",
            "          ",
            "          ",
            "          ",
            "   XXXX   ",
            "          "
          ]
        },
        {
          "name": "Gâteau",
          "color": "#e4d109",
          "code": [
            "          ",
            "   XXX    ",
            "          ",
            "          ",
            "          ",
            "          ",
            "          ",
            "          ",
            "   XXXX   ",
            "          "
          ]
        },
        {
          "name": "Champignon",
          "color": "#e4d109",
          "code": [
            "          ",
            "   XXX    ",
            "          ",
            "          ",
            "          ",
            "          ",
            "          ",
            "          ",
            "   XXXX   ",
            "          "
          ]
        },
        {
          "name": "Cheval",
          "color": "#e4d109",
          "code": [
            "          ",
            "   XXX    ",
            "          ",
            "          ",
            "          ",
            "          ",
            "          ",
            "          ",
            "   XXXX   ",
            "          "
          ]
        },
        {
          "name": "Coffre",
          "color": "#e4d109",
          "code": [
            "          ",
            "   XXX    ",
            "          ",
            "          ",
            "          ",
            "          ",
            "          ",
            "          ",
            "   XXXX   ",
            "          "
          ]
        }
      ]
    },
    {
      "name": "Fantasy",
      "cards": [
        {
          "name": "Nain",
          "color": "#fa2f3e",
          "code": [
            "          ",
            "          ",
            "          ",
            "   X  X   ",
            "          ",
            "    XX    ",
            "          ",
            "          ",
            "          ",
            "          "
          ]
        },
        {
          "name": "Elfe",
          "color": "#fa2f3e",
          "code": [
            "          ",
            "          ",
            "          ",
            "   X  X   ",
            "          ",
            "    XX    ",
            "          ",
            "          ",
            "          ",
            "          "
          ]
        },
        {
          "name": "Orque",
          "color": "#fa2f3e",
          "code": [
            "          ",
            "          ",
            "          ",
            "   X  X   ",
            "          ",
            "    XX    ",
            "          ",
            "          ",
            "          ",
            "          "
          ]
        },
        {
          "name": "Dragon",
          "color": "#a7a9a8",
          "code": [
            "          ",
            "          ",
            "          ",
            "          ",
            " X      X ",
            " X      X ",
            "          ",
            "          ",
            "          ",
            "          "
          ]
        },
        {
          "name": "Mage",
          "color": "#a7a9a8",
          "code": [
            "          ",
            "          ",
            "          ",
            "          ",
            " X      X ",
            " X      X ",
            "          ",
            "          ",
            "          ",
            "          "
          ]
        },
        {
          "name": "Sorcière",
          "color": "#a7a9a8",
          "code": [
            "          ",
            "          ",
            "          ",
            "          ",
            " X      X ",
            " X      X ",
            "          ",
            "          ",
            "          ",
            "          "
          ]
        },
        {
          "name": "Garçon",
          "color": "#000000",
          "code": [
            "          ",
            "          ",
            "          ",
            "   X  X   ",
            "          ",
            "          ",
            "          ",
            "    XX    ",
            "          ",
            "          "
          ]
        },
        {
          "name": "Fille",
          "color": "#ffffff",
          "code": [
            "          ",
            "          ",
            "          ",
            "          ",
            "          ",
            "          ",
            "          ",
            "  X    X  ",
            " X      X ",
            "          "
          ]
        },
        {
          "name": "Avancer",
          "color": "#ff7a42",
          "code": [
            "          ",
            "          ",
            "          ",
            "          ",
            "          ",
            "          ",
            "          ",
            "   X  X   ",
            "  XX  XX  ",
            " XX XX XX "
          ]
        },
        {
          "name": "Utiliser",
          "color": "#05aa42",
          "code": [
            "          ",
            "   X      ",
            "  XXX     ",
            " XXXX     ",
            "  XXX     ",
            "  XX      ",
            "   XXX    ",
            "          ",
            "          ",
            "          "
          ]
        },
        {
          "name": "Attaquer",
          "color": "#05aa42",
          "code": [
            "          ",
            "   X      ",
            "  XXX     ",
            " XXXX     ",
            "  XXX     ",
            "  XX      ",
            "   XXX    ",
            "          ",
            "          ",
            "          "
          ]
        },
        {
          "name": "Manger",
          "color": "#68b6f4",
          "code": [
            "          ",
            "      X   ",
            "     XXX  ",
            "     X XX ",
            "   XXXXX  ",
            "      XX  ",
            "   XXXX   ",
            "          ",
            "          ",
            "          "
          ]
        },
        {
          "name": "Dormir",
          "color": "#a7a9a8",
          "code": [
            "    XX    ",
            "    XX    ",
            "          ",
            "          ",
            "          ",
            "          ",
            "          ",
            "          ",
            "    XX    ",
            "   XXXX   "
          ]
        },
        {
          "name": "Soigner",
          "color": "#e4d109",
          "code": [
            "          ",
            "   XXX    ",
            "          ",
            "          ",
            "          ",
            "          ",
            "          ",
            "          ",
            "   XXXX   ",
            "          "
          ]
        },
        {
          "name": "Fuir",
          "color": "#e4d109",
          "code": [
            "          ",
            "   XXX    ",
            "          ",
            "          ",
            "          ",
            "          ",
            "          ",
            "          ",
            "   XXXX   ",
            "          "
          ]
        },
        {
          "name": "Si",
          "color": "#e4d109",
          "code": [
            "          ",
            "   XXX    ",
            "          ",
            "          ",
            "          ",
            "          ",
            "          ",
            "          ",
            "   XXXX   ",
            "          "
          ]
        },
        {
          "name": "Alors",
          "color": "#e4d109",
          "code": [
            "          ",
            "   XXX    ",
            "          ",
            "          ",
            "          ",
            "          ",
            "          ",
            "          ",
            "   XXXX   ",
            "          "
          ]
        },
        {
          "name": "Sinon",
          "color": "#e4d109",
          "code": [
            "          ",
            "   XXX    ",
            "          ",
            "          ",
            "          ",
            "          ",
            "          ",
            "          ",
            "   XXXX   ",
            "          "
          ]
        },
        {
          "name": "Fin_Si",
          "color": "#e4d109",
          "code": [
            "          ",
            "   XXX    ",
            "          ",
            "          ",
            "          ",
            "          ",
            "          ",
            "          ",
            "   XXXX   ",
            "          "
          ]
        },
        {
          "name": "Tant_Que",
          "color": "#e4d109",
          "code": [
            "          ",
            "   XXX    ",
            "          ",
            "          ",
            "          ",
            "          ",
            "          ",
            "          ",
            "   XXXX   ",
            "          "
          ]
        },
        {
          "name": "Fin_Tant_Que",
          "color": "#e4d109",
          "code": [
            "          ",
            "   XXX    ",
            "          ",
            "          ",
            "          ",
            "          ",
            "          ",
            "          ",
            "   XXXX   ",
            "          "
          ]
        },
        {
          "name": "Et",
          "color": "#e4d109",
          "code": [
            "          ",
            "   XXX    ",
            "          ",
            "          ",
            "          ",
            "          ",
            "          ",
            "          ",
            "   XXXX   ",
            "          "
          ]
        },
        {
          "name": "Ou",
          "color": "#e4d109",
          "code": [
            "          ",
            "   XXX    ",
            "          ",
            "          ",
            "          ",
            "          ",
            "          ",
            "          ",
            "   XXXX   ",
            "          "
          ]
        },
        {
          "name": "Forêt",
          "color": "#e4d109",
          "code": [
            "          ",
            "   XXX    ",
            "          ",
            "          ",
            "          ",
            "          ",
            "          ",
            "          ",
            "   XXXX   ",
            "          "
          ]
        },
        {
          "name": "Château",
          "color": "#e4d109",
          "code": [
            "          ",
            "   XXX    ",
            "          ",
            "          ",
            "          ",
            "          ",
            "          ",
            "          ",
            "   XXXX   ",
            "          "
          ]
        },
        {
          "name": "Anneau",
          "color": "#e4d109",
          "code": [
            "          ",
            "   XXX    ",
            "          ",
            "          ",
            "          ",
            "          ",
            "          ",
            "          ",
            "   XXXX   ",
            "          "
          ]
        },
        {
          "name": "Gâteau",
          "color": "#e4d109",
          "code": [
            "          ",
            "   XXX    ",
            "          ",
            "          ",
            "          ",
            "          ",
            "          ",
            "          ",
            "   XXXX   ",
            "          "
          ]
        },
        {
          "name": "Champignon",
          "color": "#e4d109",
          "code": [
            "          ",
            "   XXX    ",
            "          ",
            "          ",
            "          ",
            "          ",
            "          ",
            "          ",
            "   XXXX   ",
            "          "
          ]
        },
        {
          "name": "Coffre",
          "color": "#e4d109",
          "code": [
            "          ",
            "   XXX    ",
            "          ",
            "          ",
            "          ",
            "          ",
            "          ",
            "          ",
            "   XXXX   ",
            "          "
          ]
        }
      ]
    }
  ]
}
